id,name,model_id:id,group_id:id,perm_read,perm_write,perm_create,perm_unlink
access_course_group_user,access_course_group_user,courses.model_course_course,base.group_user,1,1,1,1
access_attendee_group_user,access_attendee_group_user,courses.model_course_attendee,base.group_user,1,1,1,1
access_room_group_user,access_room_group_user,courses.model_course_room,base.group_user,1,1,1,1
access_lesson_group_user,access_lesson_group_user,courses.model_course_lesson,base.group_user,1,1,1,1

